{
    "$schema": "http://json-schema.org/draft-04/schema#",
    "definitions": {},
    "id": "http://example.com/example.json",
    "items": {
        "id": "/items",
        "properties": {
        	"pharId": {
                "id": "/items/properties/pharId",
                "type": "string",
                "maxLength": 30
            },
            "sapCode": {
                "id": "/items/properties/sapCode",
                "type": "string",
                "maxLength": 40
            },
            "pharName": {
                "id": "/items/properties/pharName",
                "type": "string"
            },
            "addressLine": {
                "id": "/items/properties/addressLine",
                "type": "string"
            },
            "city": {
                "id": "/items/properties/city",
                "type": "string"
            },
            "postalArea": {
                "id": "/items/properties/postalArea",
                "type": "string"
            },
            "geographyCode1": {
                "id": "/items/properties/geographyCode1",
                "type": "string"
            },
            "geographyCode2": {
                "id": "/items/properties/geographyCode2",
                "type": "string"
            },
            "country": {
                "id": "/items/properties/country",
                "type": "string"
            },
            "status": {
                "id": "/items/properties/status",
                "type": "string"
            },
            "rating": {
                "id": "/items/properties/rating",
                "type": "string"
            },
            "taxArea": {
                "id": "/items/properties/taxArea",
                "type": "string"
            },
            "taxValue": {
                "id": "/items/properties/taxValue",
                "type": "string"
            },
            "recordTypeID": {
                "id": "/items/properties/recordTypeID",
                "type": "string"
            },
            "currencyIsoCode": {
                "id": "/items/properties/currencyIsoCode",
                "type": "string"
            }
        },
        "type": "object"
    },
    "type": "array"
}