{
    "$schema": "http://json-schema.org/draft-04/schema#",
    "definitions": {},
    "id": "http://example.com/example.json",
    "items": {
        "id": "/items",
        "properties": {
            "prodCode": {
                "id": "/items/properties/prodCode",
                "type": "string"
            },
			"brandName": {
                "id": "/items/properties/brandName",
                "type": "string",
                "maxLength": 200
            },
            "cnCode": {
                "id": "/items/properties/cnCode",
                "type": "string",
                "maxLength": 200
            },
            "eanCode": {
                "id": "/items/properties/eanCode",
                "type": "string"
            },
            "minOrderQty": {
                "id": "/items/properties/minOrderQty",
                "type": "string",
                "maxLength": 200
            },
            "prodId": {
                "id": "/items/properties/prodId",
                "type": "string",
                "maxLength": 200
            },
            "prodName": {
                "id": "/items/properties/prodName",
                "type": "string",
                "maxLength": 200
            },
            "sapCode": {
                "id": "/items/properties/sapCode",
                "type": "string",
                "maxLength": 200
            },
            "status": {
                "id": "/items/properties/status",
                "type": "string",
                "maxLength": 200
            },
            "rbCountry": {
                "id": "/items/properties/rbCountry",
                "type": "string"
            },
            "currencyIsoCode": {
                "id": "/items/properties/currencyIsoCode",
                "type": "string"
            }
        },
        "type": "object"
    },
    "type": "array"
}