{
    "inputMessageMetadata": {
        "messagePayload": {
            "connectorName": "#_custom_mule_metadata_type_#",
            "typeId": "customer-csv"
        }
    },
    "outputMessageMetadata": {
        "messagePayload": {
            "connectorName": "#_custom_mule_metadata_type_#",
            "typeId": "customer-example-id"
        }
    },
    "id": "2dc9cf7a-3d2a-4054-af8a-605edcb584ea",
    "version": "5.2.0.0"
}