{
    "inputMessageMetadata": {
        "messagePayload": {
            "connectorName": "#_custom_mule_metadata_type_#",
            "typeId": "product_idl"
        }
    },
    "outputMessageMetadata": {
        "messagePayload": {
            "connectorName": "#_custom_mule_metadata_type_#",
            "typeId": "product_json"
        }
    },
    "id": "87dd9e93-2502-4fbc-bb29-e7cbf6c49e86",
    "version": "5.2.0.0"
}