{
    "inputMessageMetadata": {
        "messagePayload": {
            "connectorName": "#_custom_mule_metadata_type_#",
            "typeId": "product_id"
        }
    },
    "outputMessageMetadata": {},
    "id": "aa2adfa5-e578-4974-8bcd-5b8e3bc6f25b",
    "version": "5.2.0.0"
}