{
    "inputMessageMetadata": {
        "messagePayload": {
            "connectorName": "#_custom_mule_metadata_type_#",
            "typeId": "product_object_id"
        }
    },
    "outputMessageMetadata": {},
    "id": "d3d73d96-30e1-4115-a18c-cc33f183977c",
    "version": "5.2.0.0"
}