{
    "inputMessageMetadata": {},
    "outputMessageMetadata": {
        "flowVariables": {
            "cartItemPayload": {
                "connectorName": "Salesforce__Basic_Authentication",
                "typeId": "RB_CartItem__c"
            }
        }
    },
    "id": "5e8f594e-72bd-4356-889b-5ce04f630b23",
    "version": "5.2.0.0"
}