[
  {
    "pricelistId": "E7101",
    "prodId": "E710049485",
    "price": "3.8",
  	"discount": "10"
  },
  {
    "pricelistId": "E7102",
    "prodId": "E710050133",
    "price": "3.80",
  	"discount": "20"
  }
]